{
  "name": "",
  "css_prefix_text": "icon-stack",
  "css_use_suffix": true,
  "hinting": true,
  "units_per_em": 1000,
  "ascent": 850,
  "glyphs": [
    {
      "uid": "2cfb3f2b46b34a1790aec0aa846297b6",
      "css": "menu",
      "code": 59393,
      "src": "entypo"
    },
    {
      "uid": "ccf7ed45e7f05a89376f38abaa9d7d13",
      "css": "twitter-circled",
      "code": 61527,
      "src": "mfglabs"
    },
    {
      "uid": "21adad41ffebf469b2370d26bcb8a3c4",
      "css": "linkedin-circled",
      "code": 62233,
      "src": "entypo"
    },
    {
      "uid": "6569bd1801e232180221ba0f6a4b8b27",
      "css": "vimeo-circled",
      "code": 62215,
      "src": "entypo"
    },
    {
      "uid": "c5fa38a7b77f4efad5d8691b05035c7b",
      "css": "dribbble-circled",
      "code": 61519,
      "src": "mfglabs"
    },
    {
      "uid": "937f4db8b6ff3348a1d9fcd5e12fd2fe",
      "css": "mail",
      "code": 59394,
      "src": "iconic"
    },
    {
      "uid": "96aafeab29734d1510805687f7695f8f",
      "css": "facebook-circled",
      "code": 61521,
      "src": "mfglabs"
    },
    {
      "uid": "fef29532e2318a0c604f34947024b990",
      "css": "gplus-circled",
      "code": 61529,
      "src": "mfglabs"
    }
  ]
}